^C:\USERS\MUSA\DOCUMENTS\VISUAL STUDIO 2013\PROJECTS\CHCDENEME\CHCDENEME\SOURCE.C
C:\USERS\MUSA\DOCUMENTS\VISUAL STUDIO 2013\PROJECTS\CHCDENEME\CHCDENEME\DEBUG\VC120.PDB
C:\USERS\MUSA\DOCUMENTS\VISUAL STUDIO 2013\PROJECTS\CHCDENEME\CHCDENEME\DEBUG\VC120.IDB
C:\USERS\MUSA\DOCUMENTS\VISUAL STUDIO 2013\PROJECTS\CHCDENEME\CHCDENEME\DEBUG\SOURCE.OBJ
